[
  {
    "id": 1,
    "src": "customer-support.png",
    "title": "پشتیبانی و ضمانت محصول",
    "desc": "همراهی شما با پلن های متعدد پشتیبانی و ارائه گارانتی نرم افزار"
  },
  {
    "id": 2,
    "src": "add-(1).png",
    "title": "مارکتینگ و گسترش محصول",
    "desc": "انتشار پروژه در مارکت های معتبر داخلی و خارجی مانند Google Play Store و Apple App Store"
  },
  {
    "id": 3,
    "src": "to-do-list.png",
    "title": "تنظیم مستندات استاندارد",
    "desc": "پنل مدیریت جهت بررسی عملکرد کلی سیستم به همراه گزارش های متعدد"
  }
]