[
  {
    "id": 1,
    "title": "کیپ تن",
    "summary": "آموزش زبان انگلیسی برای کودکان",
    "description": "این برنامه با گرافیک و انیمیشن های خاص و جذاب آموزش زبان انگلیسی را آسان و دلچسب تر خواهد کرد، آموزش های لازم از طریق ویدیوها و آهنگ های شاد و کودکانه طوری طراحی شده است که برای کودکان خسته کننده نباشد و از طرفی دیگر ضمن انتقال حس هیجان ، آنها را مشتاق به فراگیری زبان انگلیسی نماید با بهره گیری از بروزترین متدهای دنیا و استفاده از فلش کارتها و ویدیوها در این اپلیکیشن روشی واقعاً مؤثر برای یادگیری کلمات جدید و بهبود تلفظ فراهم می کند . ویدیوها با اکشن مخصوصاً برای کودکان بسیار خوب است زیرا حتی اگر هنوز قادر به آواز خواندن این ترانه نیستند می توانند به آن بپیوندند.",
    "imageRoot": "KIPTAN",
    "gallery": [
      "1.png",
      "2.png",
      "3.png",
      "4.png"
    ]

  },
  {
    "id": 2,
    "title": "کیپ تن 1",
    "summary": "آموزش زبان 1 انگلیسی برای کودکان",
    "description": "این برنامه با گرافیک و انیمیشن های خاص و جذاب آموزش زبان انگلیسی را آسان و دلچسب تر خواهد کرد، آموزش های لازم از طریق ویدیوها و آهنگ های شاد و کودکانه طوری طراحی شده است که برای کودکان خسته کننده نباشد و از طرفی دیگر ضمن انتقال حس هیجان ، آنها را مشتاق به فراگیری زبان انگلیسی نماید با بهره گیری از بروزترین متدهای دنیا و استفاده از فلش کارتها و ویدیوها در این اپلیکیشن روشی واقعاً مؤثر برای یادگیری کلمات جدید و بهبود تلفظ فراهم می کند . ویدیوها با اکشن مخصوصاً برای کودکان بسیار خوب است زیرا حتی اگر هنوز قادر به آواز خواندن این ترانه نیستند می توانند به آن بپیوندند.",
    "imageRoot": "KIPTAN",
    "gallery": [
      "1.png",
      "2.png",
      "3.png",
      "4.png"
    ]

  }
]